{
  "configuration": {
    "show_brand": true,
    "show_footer": true,
    "show_older_reviews": true,
    "show_demographic_info": true,
    "helpfulness_voting": "/reevoomark/votes/en-GB/---id---?vote=---vote---",
    "multi_country_region_is_available": false,
    "current_region_is_multi_country": false,
    "older_reviews_available": false,
    "flags_enabled": true,
    "social_enabled": true,
    "stars_enabled": true,
    "stars_in_facets": false,
    "scores_in_facets": true
  },
  "header": {
    "title": "APPLE MacBook Air 13.6\" (2022) - M2, 256 GB SSD, Starlight reviews verified by <span class='reevoo-name'>reevoo</span><reevoo-quotes/>",
    "product_image": "https://images.reevoo.com/retailer_products/1193592/1193592597/130x130.jpg?fingerprint=cd51cc1682308109801d59f7d67509681cac9723",
    "show_product_image": false,
    "num_of_reviews": "42 reviews",
    "average_score": "9.0",
    "facets": [
      { "name": "Design", "score": 9.4 },
      { "name": "Battery life", "score": 9.3 },
      { "name": "Size and weight", "score": 9.4 },
      { "name": "Performance", "score": 9.2 },
      { "name": "Value for money", "score": 7.9 },
      { "name": "Overall rating", "score": 9.0 }
    ],
    "slider_facets": [],
    "region_list": [["My country and language (42 reviews)", "my-locale"]]
  },
  "body": {
    "filter_bar": {
      "show_scores": {
        "show_text": "Show all scores",
        "hide_text": "Hide all scores"
      },
      "filters_text": "Reviews from:",
      "filter_all": "All purchasers",
      "filters": [
        ["Business user", "business-user"],
        ["Creative", "creative"],
        ["Gamer", "gamer"],
        ["General home user", "general-home-user"],
        ["Student", "student"],
        ["other", "other"]
      ],
      "sort_text": "Sort by:",
      "sorters": [
        ["My language first", "language"],
        ["Most recent", "recent"],
        ["Most helpful", "helpful"],
        ["Lowest score", "score_asc"],
        ["Highest score", "score_desc"]
      ],
      "default_sorter": "language"
    },
    "reviews": [
      {
        "id": 36368784,
        "supplementary_info": null,
        "overall_score": 5,
        "embeddable": true,
        "locale": "en-GB",
        "language": "en",
        "reviewer": {
          "name": "Paul",
          "location": "Belfast",
          "segment": "Business user"
        },
        "fast_responses": [],
        "purchase_date": "2022-11-08",
        "publish_date": "2022-12-06",
        "text": {
          "good_points": null,
          "bad_points": "Not touch screen and you would need a full lesson how to work it. It’s nothing like your ordinary laptop. Not great for the money"
        },
        "photos": [],
        "facets": [
          { "name": "Design", "score": 6.0 },
          { "name": "Battery life", "score": 8.0 },
          { "name": "Size and weight", "score": 8.0 },
          { "name": "Performance", "score": 5.0 },
          { "name": "Value for money", "score": 3.0 },
          { "name": "Overall rating", "score": 5.0 }
        ],
        "slider_facets": [],
        "launch_review": false,
        "translations": {
          "verified_purchase": "Confirmed purchase:",
          "launch_review": "This reviewer was invited to try the product in exchange for their honest opinion"
        }
      },
      {
        "id": 36347394,
        "supplementary_info": null,
        "overall_score": 10,
        "embeddable": true,
        "locale": "en-GB",
        "language": "en",
        "reviewer": {
          "name": "Emma",
          "location": "Solihull",
          "segment": "General home user"
        },
        "fast_responses": [],
        "purchase_date": "2022-11-03",
        "publish_date": "2022-12-05",
        "text": {
          "good_points": "Amazing, so fast and really lightweight compared to my previous Mac (2019). If you can I’d definitely purchase this one rather than the 2020 version!",
          "bad_points": "Nothing. Expensive but worth it as I know Mac’s last a long time"
        },
        "photos": [],
        "facets": [
          { "name": "Design", "score": 10.0 },
          { "name": "Battery life", "score": 8.0 },
          { "name": "Size and weight", "score": 10.0 },
          { "name": "Performance", "score": 10.0 },
          { "name": "Value for money", "score": 9.0 },
          { "name": "Overall rating", "score": 10.0 }
        ],
        "slider_facets": [],
        "launch_review": false,
        "translations": {
          "verified_purchase": "Confirmed purchase:",
          "launch_review": "This reviewer was invited to try the product in exchange for their honest opinion"
        }
      },
      {
        "id": 36340464,
        "supplementary_info": null,
        "overall_score": 7,
        "embeddable": true,
        "locale": "en-GB",
        "language": "en",
        "reviewer": {
          "name": "Syed",
          "location": "Bradford",
          "segment": "General home user"
        },
        "fast_responses": [],
        "purchase_date": "2022-11-05",
        "publish_date": "2022-12-04",
        "text": { "good_points": "Light Weight", "bad_points": "No Comments" },
        "photos": [],
        "facets": [
          { "name": "Design", "score": 9.0 },
          { "name": "Battery life", "score": 8.0 },
          { "name": "Size and weight", "score": 8.0 },
          { "name": "Performance", "score": 8.0 },
          { "name": "Value for money", "score": 7.0 },
          { "name": "Overall rating", "score": 7.0 }
        ],
        "slider_facets": [],
        "launch_review": false,
        "translations": {
          "verified_purchase": "Confirmed purchase:",
          "launch_review": "This reviewer was invited to try the product in exchange for their honest opinion"
        }
      },
      {
        "id": 35653521,
        "supplementary_info": null,
        "overall_score": 10,
        "embeddable": true,
        "locale": "en-GB",
        "language": "en",
        "reviewer": {
          "name": "Robert",
          "location": "Southport",
          "segment": "General home user"
        },
        "fast_responses": [],
        "purchase_date": "2022-09-22",
        "publish_date": "2022-10-21",
        "text": {
          "good_points": "Super lightweight - reason I bought it…everything else pure joy !",
          "bad_points": "Price point…."
        },
        "photos": [],
        "facets": [
          { "name": "Design", "score": 10.0 },
          { "name": "Battery life", "score": 10.0 },
          { "name": "Size and weight", "score": 10.0 },
          { "name": "Performance", "score": 10.0 },
          { "name": "Value for money", "score": 8.0 },
          { "name": "Overall rating", "score": 10.0 }
        ],
        "slider_facets": [],
        "launch_review": false,
        "translations": {
          "verified_purchase": "Confirmed purchase:",
          "launch_review": "This reviewer was invited to try the product in exchange for their honest opinion"
        }
      },
      {
        "id": 35495331,
        "supplementary_info": null,
        "overall_score": 10,
        "embeddable": true,
        "locale": "en-GB",
        "language": "en",
        "reviewer": {
          "name": "Dk invest",
          "location": "Didcot",
          "segment": "Student"
        },
        "fast_responses": [],
        "purchase_date": "2022-09-01",
        "publish_date": "2022-09-29",
        "text": {
          "good_points": "Absolutely love it! Colour, battery, speed, space of the mac. I really recommend it",
          "bad_points": null
        },
        "photos": [],
        "facets": [
          { "name": "Design", "score": 10.0 },
          { "name": "Battery life", "score": 10.0 },
          { "name": "Size and weight", "score": 10.0 },
          { "name": "Performance", "score": 10.0 },
          { "name": "Value for money", "score": 10.0 },
          { "name": "Overall rating", "score": 10.0 }
        ],
        "slider_facets": [],
        "launch_review": false,
        "translations": {
          "verified_purchase": "Confirmed purchase:",
          "launch_review": "This reviewer was invited to try the product in exchange for their honest opinion"
        }
      },
      {
        "id": 35373763,
        "supplementary_info": null,
        "overall_score": 5,
        "embeddable": true,
        "locale": "en-GB",
        "language": "en",
        "reviewer": {
          "name": "George",
          "location": "Perth",
          "segment": "General home user"
        },
        "fast_responses": [],
        "purchase_date": "2022-08-15",
        "publish_date": "2022-09-16",
        "text": {
          "good_points": "Great battery life",
          "bad_points": "very pricey and difficult to set up if you are new to MacBooks"
        },
        "photos": [],
        "facets": [
          { "name": "Design", "score": 7.0 },
          { "name": "Battery life", "score": 10.0 },
          { "name": "Size and weight", "score": 7.0 },
          { "name": "Performance", "score": 7.0 },
          { "name": "Value for money", "score": 3.0 },
          { "name": "Overall rating", "score": 5.0 }
        ],
        "slider_facets": [],
        "launch_review": false,
        "translations": {
          "verified_purchase": "Confirmed purchase:",
          "launch_review": "This reviewer was invited to try the product in exchange for their honest opinion"
        }
      },
      {
        "id": 35363099,
        "supplementary_info": null,
        "overall_score": 9,
        "embeddable": true,
        "locale": "en-GB",
        "language": "en",
        "reviewer": {
          "name": "Fabakary",
          "location": "London",
          "segment": "Business user"
        },
        "fast_responses": [],
        "purchase_date": "2022-08-17",
        "publish_date": "2022-09-15",
        "text": {
          "good_points": "There is no fan noise at all while using it",
          "bad_points": null
        },
        "photos": [],
        "facets": [
          { "name": "Design", "score": 10.0 },
          { "name": "Battery life", "score": 10.0 },
          { "name": "Size and weight", "score": 9.0 },
          { "name": "Performance", "score": 10.0 },
          { "name": "Value for money", "score": 9.0 },
          { "name": "Overall rating", "score": 9.0 }
        ],
        "slider_facets": [],
        "launch_review": false,
        "translations": {
          "verified_purchase": "Confirmed purchase:",
          "launch_review": "This reviewer was invited to try the product in exchange for their honest opinion"
        }
      },
      {
        "id": 35347920,
        "supplementary_info": null,
        "overall_score": 9,
        "embeddable": true,
        "locale": "en-GB",
        "language": "en",
        "reviewer": {
          "name": "M",
          "location": null,
          "segment": "General home user"
        },
        "fast_responses": [],
        "purchase_date": "2022-08-16",
        "publish_date": "2022-09-13",
        "text": { "good_points": null, "bad_points": "Over priced" },
        "photos": [],
        "facets": [
          { "name": "Design", "score": 10.0 },
          { "name": "Battery life", "score": 10.0 },
          { "name": "Size and weight", "score": 10.0 },
          { "name": "Performance", "score": 10.0 },
          { "name": "Value for money", "score": 4.0 },
          { "name": "Overall rating", "score": 9.0 }
        ],
        "slider_facets": [],
        "launch_review": false,
        "translations": {
          "verified_purchase": "Confirmed purchase:",
          "launch_review": "This reviewer was invited to try the product in exchange for their honest opinion"
        }
      },
      {
        "id": 35225628,
        "supplementary_info": null,
        "overall_score": 10,
        "embeddable": true,
        "locale": "en-GB",
        "language": "en",
        "reviewer": {
          "name": "Elizabeth",
          "location": null,
          "segment": "Gamer"
        },
        "fast_responses": [],
        "purchase_date": "2022-07-27",
        "publish_date": "2022-08-28",
        "text": {
          "good_points": "I LOVE the colour! It’s so clean and chic. Another good point is how thin the border is, especially for how small the laptop is. Great product. I wouldn’t play games on this laptop because it does heat up, and make a little noise. This laptop is not made for gaming anyways. Other than that, GREAT performance.",
          "bad_points": null
        },
        "photos": [],
        "facets": [
          { "name": "Design", "score": 10.0 },
          { "name": "Battery life", "score": 10.0 },
          { "name": "Size and weight", "score": 10.0 },
          { "name": "Performance", "score": 10.0 },
          { "name": "Value for money", "score": 10.0 },
          { "name": "Overall rating", "score": 10.0 }
        ],
        "slider_facets": [],
        "launch_review": false,
        "translations": {
          "verified_purchase": "Confirmed purchase:",
          "launch_review": "This reviewer was invited to try the product in exchange for their honest opinion"
        }
      },
      {
        "id": 35212510,
        "supplementary_info": null,
        "overall_score": 10,
        "embeddable": true,
        "locale": "en-GB",
        "language": "en",
        "reviewer": {
          "name": "Kishwar",
          "location": "Harrow",
          "segment": "Student"
        },
        "fast_responses": [],
        "purchase_date": "2022-07-29",
        "publish_date": "2022-08-26",
        "text": {
          "good_points": "I really enjoy my laptop amazing wors really well. I would highly recommend it.",
          "bad_points": "I would have preferred it to be touch screen would be better"
        },
        "photos": [],
        "facets": [
          { "name": "Design", "score": 10.0 },
          { "name": "Battery life", "score": 10.0 },
          { "name": "Size and weight", "score": 10.0 },
          { "name": "Performance", "score": 10.0 },
          { "name": "Value for money", "score": 10.0 },
          { "name": "Overall rating", "score": 10.0 }
        ],
        "slider_facets": [],
        "launch_review": false,
        "translations": {
          "verified_purchase": "Confirmed purchase:",
          "launch_review": "This reviewer was invited to try the product in exchange for their honest opinion"
        }
      }
    ],
    "pagination": {
      "total_entries": 42,
      "total_entries_with_content": 22,
      "current_page": 2,
      "total_pages": 5,
      "per_page": 10,
      "previous_page": 1,
      "next_page": 3
    }
  },
  "translations": {
    "vote_response": "Thanks! Your vote will be counted and will help others decide.",
    "vote_failure": "Sorry, we can’t take your vote right now. Please try again later.",
    "pagination": {
      "first": "&laquo; First",
      "last": "Last &raquo;",
      "next": "Next &rsaquo;",
      "previous": "&lsaquo; Prev",
      "truncate": "&hellip;"
    },
    "show_scores": "Show scores",
    "hide_scores": "Hide scores",
    "published_on": "Published on:",
    "no_comment": "Reviewer left no comment",
    "out_of": "out of 10",
    "multi_country": "You can also see %{reviews_number} Multi-country reviews",
    "read_more": "Read More",
    "see_less": "See Less",
    "see_older_reviews": "See older reviews of APPLE MacBook Air 13.6\" (2022) - M2, 256 GB SSD, Starlight",
    "see_newer_reviews": "See recent reviews of APPLE MacBook Air 13.6\" (2022) - M2, 256 GB SSD, Starlight",
    "translate": "Translate",
    "show_original": "Show Original",
    "no_reviews": "Sorry, there are no reviews yet.",
    "share_text": "Check out these reviews",
    "paste_this_into_your_email": "Paste this into your email or IM",
    "share_dialog": "Share Dialog",
    "search_no_reviews": "Sorry, we can’t find any reviews that match with your search. You can check out other reviews for this product below."
  },
  "about_reevoo": null,
  "facets_by_segment": [
    {
      "name": "All purchasers",
      "facets": [
        { "name": "Design", "score": 9.4 },
        { "name": "Battery life", "score": 9.3 },
        { "name": "Size and weight", "score": 9.4 },
        { "name": "Performance", "score": 9.2 },
        { "name": "Value for money", "score": 7.9 },
        { "name": "Overall rating", "score": 9.0 }
      ]
    },
    {
      "name": "Business user",
      "facets": [
        { "name": "Design", "score": 9.4 },
        { "name": "Battery life", "score": 9.3 },
        { "name": "Size and weight", "score": 9.5 },
        { "name": "Performance", "score": 8.9 },
        { "name": "Value for money", "score": 7.6 },
        { "name": "Overall rating", "score": 8.6 }
      ]
    },
    {
      "name": "Creative",
      "facets": [
        { "name": "Design", "score": 10.0 },
        { "name": "Battery life", "score": 10.0 },
        { "name": "Size and weight", "score": 10.0 },
        { "name": "Performance", "score": 10.0 },
        { "name": "Value for money", "score": 8.0 },
        { "name": "Overall rating", "score": 10.0 }
      ]
    },
    {
      "name": "Gamer",
      "facets": [
        { "name": "Design", "score": 10.0 },
        { "name": "Battery life", "score": 10.0 },
        { "name": "Size and weight", "score": 10.0 },
        { "name": "Performance", "score": 10.0 },
        { "name": "Value for money", "score": 10.0 },
        { "name": "Overall rating", "score": 10.0 }
      ]
    },
    {
      "name": "General home user",
      "facets": [
        { "name": "Design", "score": 9.5 },
        { "name": "Battery life", "score": 9.6 },
        { "name": "Size and weight", "score": 9.5 },
        { "name": "Performance", "score": 9.5 },
        { "name": "Value for money", "score": 8.0 },
        { "name": "Overall rating", "score": 9.2 }
      ]
    },
    {
      "name": "Student",
      "facets": [
        { "name": "Design", "score": 8.9 },
        { "name": "Battery life", "score": 8.5 },
        { "name": "Size and weight", "score": 8.8 },
        { "name": "Performance", "score": 8.7 },
        { "name": "Value for money", "score": 7.7 },
        { "name": "Overall rating", "score": 8.8 }
      ]
    },
    {
      "name": "Other",
      "facets": [
        { "name": "Design", "score": 10.0 },
        { "name": "Battery life", "score": 10.0 },
        { "name": "Size and weight", "score": 10.0 },
        { "name": "Performance", "score": 10.0 },
        { "name": "Value for money", "score": 8.0 },
        { "name": "Overall rating", "score": 8.5 }
      ]
    }
  ]
}
