{
  "configuration": {
    "show_brand": true,
    "show_footer": true,
    "show_older_reviews": true,
    "show_demographic_info": true,
    "helpfulness_voting": "/reevoomark/votes/en-GB/---id---?vote=---vote---",
    "multi_country_region_is_available": false,
    "current_region_is_multi_country": false,
    "older_reviews_available": false,
    "flags_enabled": true,
    "social_enabled": true,
    "stars_enabled": true,
    "stars_in_facets": false,
    "scores_in_facets": true
  },
  "header": {
    "title": "APPLE MacBook Air 13.6\" (2022) - M2, 256 GB SSD, Starlight reviews verified by <span class='reevoo-name'>reevoo</span><reevoo-quotes/>",
    "product_image": "https://images.reevoo.com/retailer_products/1193592/1193592597/130x130.jpg?fingerprint=cd51cc1682308109801d59f7d67509681cac9723",
    "show_product_image": false,
    "num_of_reviews": "42 reviews",
    "average_score": "9.0",
    "facets": [
      { "name": "Design", "score": 9.4 },
      { "name": "Battery life", "score": 9.3 },
      { "name": "Size and weight", "score": 9.4 },
      { "name": "Performance", "score": 9.2 },
      { "name": "Value for money", "score": 7.9 },
      { "name": "Overall rating", "score": 9.0 }
    ],
    "slider_facets": [],
    "region_list": [["My country and language (42 reviews)", "my-locale"]]
  },
  "body": {
    "filter_bar": {
      "show_scores": {
        "show_text": "Show all scores",
        "hide_text": "Hide all scores"
      },
      "filters_text": "Reviews from:",
      "filter_all": "All purchasers",
      "filters": [
        ["Business user", "business-user"],
        ["Creative", "creative"],
        ["Gamer", "gamer"],
        ["General home user", "general-home-user"],
        ["Student", "student"],
        ["other", "other"]
      ],
      "sort_text": "Sort by:",
      "sorters": [
        ["My language first", "language"],
        ["Most recent", "recent"],
        ["Most helpful", "helpful"],
        ["Lowest score", "score_asc"],
        ["Highest score", "score_desc"]
      ],
      "default_sorter": "language"
    },
    "reviews": [
      {
        "id": 36802223,
        "supplementary_info": null,
        "overall_score": 10,
        "embeddable": false,
        "locale": "en-GB",
        "language": "en",
        "reviewer": {
          "name": "Janet",
          "location": "East Ham",
          "segment": "General home user"
        },
        "fast_responses": [],
        "purchase_date": "2022-12-03",
        "publish_date": "2023-01-02",
        "text": { "good_points": "excellent", "bad_points": null },
        "photos": [],
        "facets": [
          { "name": "Design", "score": 10.0 },
          { "name": "Battery life", "score": 10.0 },
          { "name": "Size and weight", "score": 10.0 },
          { "name": "Performance", "score": 10.0 },
          { "name": "Value for money", "score": 10.0 },
          { "name": "Overall rating", "score": 10.0 }
        ],
        "slider_facets": [],
        "launch_review": false,
        "translations": {
          "verified_purchase": "Confirmed purchase:",
          "launch_review": "This reviewer was invited to try the product in exchange for their honest opinion"
        }
      },
      {
        "id": 36749128,
        "supplementary_info": null,
        "overall_score": 10,
        "embeddable": false,
        "locale": "en-GB",
        "language": "en",
        "reviewer": {
          "name": "Loveness",
          "location": "Wallsend",
          "segment": "General home user"
        },
        "fast_responses": [],
        "purchase_date": "2022-11-28",
        "publish_date": "2022-12-30",
        "text": { "good_points": "Excellent gadget", "bad_points": null },
        "photos": [],
        "facets": [
          { "name": "Design", "score": 10.0 },
          { "name": "Battery life", "score": 10.0 },
          { "name": "Size and weight", "score": 10.0 },
          { "name": "Performance", "score": 10.0 },
          { "name": "Value for money", "score": 10.0 },
          { "name": "Overall rating", "score": 10.0 }
        ],
        "slider_facets": [],
        "launch_review": false,
        "translations": {
          "verified_purchase": "Confirmed purchase:",
          "launch_review": "This reviewer was invited to try the product in exchange for their honest opinion"
        }
      },
      {
        "id": 36748896,
        "supplementary_info": null,
        "overall_score": 9,
        "embeddable": false,
        "locale": "en-GB",
        "language": "en",
        "reviewer": {
          "name": "Paul",
          "location": "Fareham",
          "segment": "General home user"
        },
        "fast_responses": [],
        "purchase_date": "2022-12-02",
        "publish_date": "2022-12-30",
        "text": {
          "good_points": "Simple and easy to use",
          "bad_points": "Cheaper"
        },
        "photos": [],
        "facets": [
          { "name": "Design", "score": 10.0 },
          { "name": "Battery life", "score": 9.0 },
          { "name": "Size and weight", "score": 9.0 },
          { "name": "Performance", "score": 10.0 },
          { "name": "Value for money", "score": 8.0 },
          { "name": "Overall rating", "score": 9.0 }
        ],
        "slider_facets": [],
        "launch_review": false,
        "translations": {
          "verified_purchase": "Confirmed purchase:",
          "launch_review": "This reviewer was invited to try the product in exchange for their honest opinion"
        }
      },
      {
        "id": 36746511,
        "supplementary_info": null,
        "overall_score": 9,
        "embeddable": false,
        "locale": "en-GB",
        "language": "en",
        "reviewer": {
          "name": "Simon",
          "location": "Nottingham",
          "segment": "General home user"
        },
        "fast_responses": [],
        "purchase_date": "2022-12-02",
        "publish_date": "2022-12-30",
        "text": {
          "good_points": "Great little light weight book, after a laptop it such a different way of working, but once you’ve got in to it just feat piece  of tech",
          "bad_points": "Bit more instructions would be nice"
        },
        "photos": [],
        "facets": [
          { "name": "Design", "score": 10.0 },
          { "name": "Battery life", "score": 10.0 },
          { "name": "Size and weight", "score": 10.0 },
          { "name": "Performance", "score": 10.0 },
          { "name": "Value for money", "score": 7.0 },
          { "name": "Overall rating", "score": 9.0 }
        ],
        "slider_facets": [],
        "launch_review": false,
        "translations": {
          "verified_purchase": "Confirmed purchase:",
          "launch_review": "This reviewer was invited to try the product in exchange for their honest opinion"
        }
      },
      {
        "id": 36737772,
        "supplementary_info": null,
        "overall_score": 8,
        "embeddable": false,
        "locale": "en-GB",
        "language": "en",
        "reviewer": {
          "name": "Nicholas",
          "location": null,
          "segment": "Student"
        },
        "fast_responses": [],
        "purchase_date": "2022-11-30",
        "publish_date": "2022-12-29",
        "text": {
          "good_points": "Size and light weight",
          "bad_points": "None"
        },
        "photos": [],
        "facets": [
          { "name": "Design", "score": 8.0 },
          { "name": "Battery life", "score": 8.0 },
          { "name": "Size and weight", "score": 9.0 },
          { "name": "Performance", "score": 8.0 },
          { "name": "Value for money", "score": 5.0 },
          { "name": "Overall rating", "score": 8.0 }
        ],
        "slider_facets": [],
        "launch_review": false,
        "translations": {
          "verified_purchase": "Confirmed purchase:",
          "launch_review": "This reviewer was invited to try the product in exchange for their honest opinion"
        }
      },
      {
        "id": 36729854,
        "supplementary_info": null,
        "overall_score": 10,
        "embeddable": false,
        "locale": "en-GB",
        "language": "en",
        "reviewer": {
          "name": "Aron",
          "location": "Essex",
          "segment": "General home user"
        },
        "fast_responses": [],
        "purchase_date": "2022-12-01",
        "publish_date": "2022-12-29",
        "text": {
          "good_points": "The whole design is amazing. It's light, easy to maneuver and has everything I need.",
          "bad_points": "Absolutely nothing "
        },
        "photos": [],
        "facets": [
          { "name": "Design", "score": 10.0 },
          { "name": "Battery life", "score": 10.0 },
          { "name": "Size and weight", "score": 10.0 },
          { "name": "Performance", "score": 10.0 },
          { "name": "Value for money", "score": 10.0 },
          { "name": "Overall rating", "score": 10.0 }
        ],
        "slider_facets": [],
        "launch_review": false,
        "translations": {
          "verified_purchase": "Confirmed purchase:",
          "launch_review": "This reviewer was invited to try the product in exchange for their honest opinion"
        }
      },
      {
        "id": 36602000,
        "supplementary_info": null,
        "overall_score": 9,
        "embeddable": false,
        "locale": "en-GB",
        "language": "en",
        "reviewer": {
          "name": "Michael",
          "location": "Sutton Coldfield",
          "segment": "General home user"
        },
        "fast_responses": [],
        "purchase_date": "2022-11-21",
        "publish_date": "2022-12-20",
        "text": {
          "good_points": "Light weight and great battery life",
          "bad_points": "None"
        },
        "photos": [],
        "facets": [
          { "name": "Design", "score": 10.0 },
          { "name": "Battery life", "score": 10.0 },
          { "name": "Size and weight", "score": 9.0 },
          { "name": "Performance", "score": 10.0 },
          { "name": "Value for money", "score": 8.0 },
          { "name": "Overall rating", "score": 9.0 }
        ],
        "slider_facets": [],
        "launch_review": false,
        "translations": {
          "verified_purchase": "Confirmed purchase:",
          "launch_review": "This reviewer was invited to try the product in exchange for their honest opinion"
        }
      },
      {
        "id": 36438430,
        "supplementary_info": null,
        "overall_score": 9,
        "embeddable": true,
        "locale": "en-GB",
        "language": "en",
        "reviewer": {
          "name": "Hardeep",
          "location": "Birmingham",
          "segment": "Student"
        },
        "fast_responses": [],
        "purchase_date": "2022-11-08",
        "publish_date": "2022-12-10",
        "text": {
          "good_points": "Perfect for my clinical on line work",
          "bad_points": "Longer battery life"
        },
        "photos": [],
        "facets": [
          { "name": "Design", "score": 8.0 },
          { "name": "Battery life", "score": 6.0 },
          { "name": "Size and weight", "score": 7.0 },
          { "name": "Performance", "score": 7.0 },
          { "name": "Value for money", "score": 6.0 },
          { "name": "Overall rating", "score": 9.0 }
        ],
        "slider_facets": [],
        "launch_review": false,
        "translations": {
          "verified_purchase": "Confirmed purchase:",
          "launch_review": "This reviewer was invited to try the product in exchange for their honest opinion"
        }
      },
      {
        "id": 36430636,
        "supplementary_info": null,
        "overall_score": 10,
        "embeddable": true,
        "locale": "en-GB",
        "language": "en",
        "reviewer": { "name": "Adrian", "location": null, "segment": null },
        "fast_responses": [],
        "purchase_date": "2022-11-12",
        "publish_date": "2022-12-10",
        "text": { "good_points": "Fantastic product", "bad_points": null },
        "photos": [],
        "facets": [
          { "name": "Design", "score": 10.0 },
          { "name": "Battery life", "score": 10.0 },
          { "name": "Size and weight", "score": 10.0 },
          { "name": "Performance", "score": 10.0 },
          { "name": "Value for money", "score": 10.0 },
          { "name": "Overall rating", "score": 10.0 }
        ],
        "slider_facets": [],
        "launch_review": false,
        "translations": {
          "verified_purchase": "Confirmed purchase:",
          "launch_review": "This reviewer was invited to try the product in exchange for their honest opinion"
        }
      },
      {
        "id": 36407546,
        "supplementary_info": null,
        "overall_score": 1,
        "embeddable": true,
        "locale": "en-GB",
        "language": "en",
        "reviewer": {
          "name": "Gareth",
          "location": null,
          "segment": "Student"
        },
        "fast_responses": [],
        "purchase_date": "2022-11-10",
        "publish_date": "2022-12-08",
        "text": {
          "good_points": "None yet how can you rate a product after a few weeks,you testing takes years.",
          "bad_points": "Longer to assess."
        },
        "photos": [],
        "facets": [
          { "name": "Design", "score": 2.0 },
          { "name": "Battery life", "score": 2.0 },
          { "name": "Size and weight", "score": 2.0 },
          { "name": "Performance", "score": 2.0 },
          { "name": "Value for money", "score": 1.0 },
          { "name": "Overall rating", "score": 1.0 }
        ],
        "slider_facets": [],
        "launch_review": false,
        "translations": {
          "verified_purchase": "Confirmed purchase:",
          "launch_review": "This reviewer was invited to try the product in exchange for their honest opinion"
        }
      }
    ],
    "pagination": {
      "total_entries": 42,
      "total_entries_with_content": 22,
      "current_page": 1,
      "total_pages": 5,
      "per_page": 10,
      "previous_page": null,
      "next_page": 2
    }
  },
  "translations": {
    "vote_response": "Thanks! Your vote will be counted and will help others decide.",
    "vote_failure": "Sorry, we can’t take your vote right now. Please try again later.",
    "pagination": {
      "first": "&laquo; First",
      "last": "Last &raquo;",
      "next": "Next &rsaquo;",
      "previous": "&lsaquo; Prev",
      "truncate": "&hellip;"
    },
    "show_scores": "Show scores",
    "hide_scores": "Hide scores",
    "published_on": "Published on:",
    "no_comment": "Reviewer left no comment",
    "out_of": "out of 10",
    "multi_country": "You can also see %{reviews_number} Multi-country reviews",
    "read_more": "Read More",
    "see_less": "See Less",
    "see_older_reviews": "See older reviews of APPLE MacBook Air 13.6\" (2022) - M2, 256 GB SSD, Starlight",
    "see_newer_reviews": "See recent reviews of APPLE MacBook Air 13.6\" (2022) - M2, 256 GB SSD, Starlight",
    "translate": "Translate",
    "show_original": "Show Original",
    "no_reviews": "Sorry, there are no reviews yet.",
    "share_text": "Check out these reviews",
    "paste_this_into_your_email": "Paste this into your email or IM",
    "share_dialog": "Share Dialog",
    "search_no_reviews": "Sorry, we can’t find any reviews that match with your search. You can check out other reviews for this product below."
  },
  "about_reevoo": null,
  "facets_by_segment": [
    {
      "name": "All purchasers",
      "facets": [
        { "name": "Design", "score": 9.4 },
        { "name": "Battery life", "score": 9.3 },
        { "name": "Size and weight", "score": 9.4 },
        { "name": "Performance", "score": 9.2 },
        { "name": "Value for money", "score": 7.9 },
        { "name": "Overall rating", "score": 9.0 }
      ]
    },
    {
      "name": "Business user",
      "facets": [
        { "name": "Design", "score": 9.4 },
        { "name": "Battery life", "score": 9.3 },
        { "name": "Size and weight", "score": 9.5 },
        { "name": "Performance", "score": 8.9 },
        { "name": "Value for money", "score": 7.6 },
        { "name": "Overall rating", "score": 8.6 }
      ]
    },
    {
      "name": "Creative",
      "facets": [
        { "name": "Design", "score": 10.0 },
        { "name": "Battery life", "score": 10.0 },
        { "name": "Size and weight", "score": 10.0 },
        { "name": "Performance", "score": 10.0 },
        { "name": "Value for money", "score": 8.0 },
        { "name": "Overall rating", "score": 10.0 }
      ]
    },
    {
      "name": "Gamer",
      "facets": [
        { "name": "Design", "score": 10.0 },
        { "name": "Battery life", "score": 10.0 },
        { "name": "Size and weight", "score": 10.0 },
        { "name": "Performance", "score": 10.0 },
        { "name": "Value for money", "score": 10.0 },
        { "name": "Overall rating", "score": 10.0 }
      ]
    },
    {
      "name": "General home user",
      "facets": [
        { "name": "Design", "score": 9.5 },
        { "name": "Battery life", "score": 9.6 },
        { "name": "Size and weight", "score": 9.5 },
        { "name": "Performance", "score": 9.5 },
        { "name": "Value for money", "score": 8.0 },
        { "name": "Overall rating", "score": 9.2 }
      ]
    },
    {
      "name": "Student",
      "facets": [
        { "name": "Design", "score": 8.9 },
        { "name": "Battery life", "score": 8.5 },
        { "name": "Size and weight", "score": 8.8 },
        { "name": "Performance", "score": 8.7 },
        { "name": "Value for money", "score": 7.7 },
        { "name": "Overall rating", "score": 8.8 }
      ]
    },
    {
      "name": "Other",
      "facets": [
        { "name": "Design", "score": 10.0 },
        { "name": "Battery life", "score": 10.0 },
        { "name": "Size and weight", "score": 10.0 },
        { "name": "Performance", "score": 10.0 },
        { "name": "Value for money", "score": 8.0 },
        { "name": "Overall rating", "score": 8.5 }
      ]
    }
  ]
}
